C3	341696	384076	piano
D#3	341696	384076	piano
G3	341696	384076	piano
C#3	480982	523709	piano
E3	480982	523709	piano
G#3	480982	523709	piano
D3	682630	722759	piano
F3	682630	722759	piano
A3	682630	722759	piano
D#3	917405	953293	piano
F#3	917405	953293	piano
A#3	917405	953293	piano
E3	1068777	1107542	piano
G3	1068777	1107542	piano
B3	1068777	1107542	piano
F3	1255081	1291709	piano
G#3	1255081	1291709	piano
C4	1255081	1291709	piano
F#3	1467056	1504663	piano
A3	1467056	1504663	piano
C#4	1467056	1504663	piano
G3	1621682	1669196	piano
A#3	1621682	1669196	piano
D4	1621682	1669196	piano
G#3	1867884	1903085	piano
B3	1867884	1903085	piano
D#4	1867884	1903085	piano
A3	2029767	2072265	piano
C4	2029767	2072265	piano
E4	2029767	2072265	piano
A#3	2166241	2200345	piano
C#4	2166241	2200345	piano
F4	2166241	2200345	piano
B3	2301718	2344373	piano
D4	2301718	2344373	piano
F#4	2301718	2344373	piano
