C3	24838	122225	concertHarp
C4	24838	122225	concertHarp
C#3	217419	310073	concertHarp
C#4	217419	310073	concertHarp
D3	408829	498040	concertHarp
D4	408829	498040	concertHarp
D#3	601408	685565	concertHarp
D#4	601408	685565	concertHarp
E3	792815	872347	concertHarp
E4	792815	872347	concertHarp
F3	985420	1126880	concertHarp
F4	985420	1126880	concertHarp
F#3	1176715	1318460	concertHarp
F#4	1176715	1318460	concertHarp
G3	1368645	1510420	concertHarp
G4	1368645	1510420	concertHarp
G#3	1560678	1699528	concertHarp
G#4	1560678	1699528	concertHarp
A3	1752815	1883854	concertHarp
A4	1752815	1883854	concertHarp
A#3	1945406	2069025	concertHarp
A#4	1945406	2069025	concertHarp
B3	2136927	2224394	concertHarp
B4	2136927	2224394	concertHarp
C4	2328956	2411493	concertHarp
C5	2328956	2411493	concertHarp
C#4	2520878	2598869	concertHarp
C#5	2520878	2598869	concertHarp
D4	2713455	2798637	concertHarp
D5	2713455	2798637	concertHarp
D#4	2904922	2984968	concertHarp
D#5	2904922	2984968	concertHarp
E4	3096943	3172980	concertHarp
E5	3096943	3172980	concertHarp
F4	3288911	3376016	concertHarp
F5	3288911	3376016	concertHarp
F#4	3481474	3567088	concertHarp
F#5	3481474	3567088	concertHarp
G4	3672882	3750916	concertHarp
G5	3672882	3750916	concertHarp
G#4	3864902	3949070	concertHarp
G#5	3864902	3949070	concertHarp
A4	4057398	4136791	concertHarp
A5	4057398	4136791	concertHarp
A#4	4248919	4324170	concertHarp
A#5	4248919	4324170	concertHarp
B4	4441487	4497168	concertHarp
B5	4441487	4497168	concertHarp
C5	4632976	4685116	concertHarp
C6	4632976	4685116	concertHarp
C#5	4824946	4872888	concertHarp
C#6	4824946	4872888	concertHarp
D5	5016909	5090207	concertHarp
D6	5016909	5090207	concertHarp
D#5	5208880	5277699	concertHarp
D#6	5208880	5277699	concertHarp
E5	5401381	5466855	concertHarp
E6	5401381	5466855	concertHarp
F5	5592928	5661195	concertHarp
F6	5592928	5661195	concertHarp
F#5	5784896	5849343	concertHarp
F#6	5784896	5849343	concertHarp
G5	5977385	6041450	concertHarp
G6	5977385	6041450	concertHarp
G#5	6169406	6206295	concertHarp
G#6	6169406	6206295	concertHarp
A5	6361361	6396221	concertHarp
A6	6361361	6396221	concertHarp
A#5	6552895	6586254	concertHarp
A#6	6552895	6586254	concertHarp
B5	6745366	6779977	concertHarp
B6	6745366	6779977	concertHarp
