C1	24205	93998	musicBox
G#1	24205	93998	musicBox
C#1	168795	238548	musicBox
A1	168795	238548	musicBox
D1	312812	382742	musicBox
A#1	312812	382742	musicBox
D#1	456794	526680	musicBox
B1	456794	526680	musicBox
E1	600758	670971	musicBox
C2	600758	670971	musicBox
F1	744819	814534	musicBox
C#2	744819	814534	musicBox
F#1	889073	958971	musicBox
D2	889073	958971	musicBox
G1	1033141	1103058	musicBox
D#2	1033141	1103058	musicBox
G#1	1176775	1246541	musicBox
E2	1176775	1246541	musicBox
A1	1320782	1390579	musicBox
F2	1320782	1390579	musicBox
A#1	1464842	1534552	musicBox
F#2	1464842	1534552	musicBox
B1	1609144	1678908	musicBox
G2	1609144	1678908	musicBox
C2	1752296	1822060	musicBox
G#2	1752296	1822060	musicBox
C#2	1896791	1967039	musicBox
A2	1896791	1967039	musicBox
D2	2040716	2110615	musicBox
A#2	2040716	2110615	musicBox
D#2	2184832	2254541	musicBox
B2	2184832	2254541	musicBox
E2	2328801	2398688	musicBox
C3	2328801	2398688	musicBox
F2	2472820	2542555	musicBox
C#3	2472820	2542555	musicBox
F#2	2616734	2686545	musicBox
D3	2616734	2686545	musicBox
G2	2761205	2830938	musicBox
D#3	2761205	2830938	musicBox
G#2	2904679	2974541	musicBox
E3	2904679	2974541	musicBox
A2	3049070	3118934	musicBox
F3	3049070	3118934	musicBox
A#2	3192789	3262566	musicBox
F#3	3192789	3262566	musicBox
B2	3336811	3406602	musicBox
G3	3336811	3406602	musicBox
C3	3480841	3550603	musicBox
G#3	3480841	3550603	musicBox
C#3	3624779	3694620	musicBox
A3	3624779	3694620	musicBox
D3	3768800	3838573	musicBox
A#3	3768800	3838573	musicBox
D#3	3912771	3982538	musicBox
B3	3912771	3982538	musicBox
E3	4056805	4126620	musicBox
C4	4056805	4126620	musicBox
F3	4200831	4270614	musicBox
C#4	4200831	4270614	musicBox
F#3	4344805	4414564	musicBox
D4	4344805	4414564	musicBox
G3	4489136	4558934	musicBox
D#4	4489136	4558934	musicBox
G#3	4632853	4702573	musicBox
E4	4632853	4702573	musicBox
A3	4776820	4846688	musicBox
F4	4776820	4846688	musicBox
A#3	4920264	4990109	musicBox
F#4	4920264	4990109	musicBox
B3	5064781	5134567	musicBox
G4	5064781	5134567	musicBox
C4	5209222	5278977	musicBox
G#4	5209222	5278977	musicBox
C#4	5352810	5422562	musicBox
A4	5352810	5422562	musicBox
D4	5496801	5566551	musicBox
A#4	5496801	5566551	musicBox
D#4	5641751	5711439	musicBox
B4	5641751	5711439	musicBox
E4	5784835	5854618	musicBox
C5	5784835	5854618	musicBox
F4	5928836	5998499	musicBox
C#5	5928836	5998499	musicBox
F#4	6073247	6142956	musicBox
D5	6073247	6142956	musicBox
G4	6216839	6286621	musicBox
D#5	6216839	6286621	musicBox
G#4	6361096	6430914	musicBox
E5	6361096	6430914	musicBox
A4	6504813	6574528	musicBox
F5	6504813	6574528	musicBox
A#4	6648330	6718041	musicBox
F#5	6648330	6718041	musicBox
B4	6792292	6862185	musicBox
G5	6792292	6862185	musicBox
C5	6936795	7006593	musicBox
G#5	6936795	7006593	musicBox
C#5	7081184	7150928	musicBox
A5	7081184	7150928	musicBox
D5	7224810	7294537	musicBox
A#5	7224810	7294537	musicBox
D#5	7368233	7438074	musicBox
B5	7368233	7438074	musicBox
E5	7512836	7582548	musicBox
C6	7512836	7582548	musicBox
F5	7656846	7726552	musicBox
C#6	7656846	7726552	musicBox
F#5	7801152	7871037	musicBox
D6	7801152	7871037	musicBox
G5	7944817	8014612	musicBox
D#6	7944817	8014612	musicBox
G#5	8088323	8158097	musicBox
E6	8088323	8158097	musicBox
A5	8232834	8302587	musicBox
F6	8232834	8302587	musicBox
A#5	8376295	8446162	musicBox
F#6	8376295	8446162	musicBox
B5	8520292	8590130	musicBox
G6	8520292	8590130	musicBox
C6	8664262	8734100	musicBox
G#6	8664262	8734100	musicBox
C#6	8809144	8879066	musicBox
A6	8809144	8879066	musicBox
D6	8953142	9023057	musicBox
A#6	8953142	9023057	musicBox
D#6	9096844	9166628	musicBox
B6	9096844	9166628	musicBox
