C1	24095	93906	musicBox
D#1	24095	93906	musicBox
G1	24095	93906	musicBox
C#1	169177	238884	musicBox
E1	169177	238884	musicBox
G#1	169177	238884	musicBox
D1	312638	382402	musicBox
F1	312638	382402	musicBox
A1	312638	382402	musicBox
D#1	456632	526771	musicBox
F#1	456632	526771	musicBox
A#1	456632	526771	musicBox
E1	600634	670386	musicBox
G1	600634	670386	musicBox
B1	600634	670386	musicBox
F1	745090	814925	musicBox
G#1	745090	814925	musicBox
C2	745090	814925	musicBox
F#1	888614	958397	musicBox
A1	888614	958397	musicBox
C#2	888614	958397	musicBox
G1	1032626	1102422	musicBox
A#1	1032626	1102422	musicBox
D2	1032626	1102422	musicBox
G#1	1177068	1246882	musicBox
B1	1177068	1246882	musicBox
D#2	1177068	1246882	musicBox
A1	1321044	1390971	musicBox
C2	1321044	1390971	musicBox
E2	1321044	1390971	musicBox
A#1	1464594	1534856	musicBox
C#2	1464594	1534856	musicBox
F2	1464594	1534856	musicBox
B1	1608711	1678439	musicBox
D2	1608711	1678439	musicBox
F#2	1608711	1678439	musicBox
C2	1752629	1822448	musicBox
D#2	1752629	1822448	musicBox
G2	1752629	1822448	musicBox
C#2	1896718	1966645	musicBox
E2	1896718	1966645	musicBox
G#2	1896718	1966645	musicBox
D2	2040669	2110421	musicBox
F2	2040669	2110421	musicBox
A2	2040669	2110421	musicBox
D#2	2185067	2254965	musicBox
F#2	2185067	2254965	musicBox
A#2	2185067	2254965	musicBox
E2	2328713	2398400	musicBox
G2	2328713	2398400	musicBox
B2	2328713	2398400	musicBox
F2	2472138	2542045	musicBox
G#2	2472138	2542045	musicBox
C3	2472138	2542045	musicBox
F#2	2616720	2686421	musicBox
A2	2616720	2686421	musicBox
C#3	2616720	2686421	musicBox
G2	2761185	2830924	musicBox
A#2	2761185	2830924	musicBox
D3	2761185	2830924	musicBox
G#2	2905174	2974917	musicBox
B2	2905174	2974917	musicBox
D#3	2905174	2974917	musicBox
A2	3048620	3118414	musicBox
C3	3048620	3118414	musicBox
E3	3048620	3118414	musicBox
A#2	3192180	3262018	musicBox
C#3	3192180	3262018	musicBox
F3	3192180	3262018	musicBox
B2	3336686	3406458	musicBox
D3	3336686	3406458	musicBox
F#3	3336686	3406458	musicBox
C3	3480661	3550396	musicBox
D#3	3480661	3550396	musicBox
G3	3480661	3550396	musicBox
C#3	3624677	3694517	musicBox
E3	3624677	3694517	musicBox
G#3	3624677	3694517	musicBox
D3	3768670	3838383	musicBox
F3	3768670	3838383	musicBox
A3	3768670	3838383	musicBox
D#3	3912611	3982404	musicBox
F#3	3912611	3982404	musicBox
A#3	3912611	3982404	musicBox
E3	4056159	4125890	musicBox
G3	4056159	4125890	musicBox
B3	4056159	4125890	musicBox
F3	4200633	4270502	musicBox
G#3	4200633	4270502	musicBox
C4	4200633	4270502	musicBox
F#3	4344664	4414414	musicBox
A3	4344664	4414414	musicBox
C#4	4344664	4414414	musicBox
G3	4488705	4558340	musicBox
A#3	4488705	4558340	musicBox
D4	4488705	4558340	musicBox
G#3	4632217	4702026	musicBox
B3	4632217	4702026	musicBox
D#4	4632217	4702026	musicBox
A3	4776659	4846427	musicBox
C4	4776659	4846427	musicBox
E4	4776659	4846427	musicBox
A#3	4920730	4990519	musicBox
C#4	4920730	4990519	musicBox
F4	4920730	4990519	musicBox
B3	5064680	5134507	musicBox
D4	5064680	5134507	musicBox
F#4	5064680	5134507	musicBox
C4	5208694	5278439	musicBox
D#4	5208694	5278439	musicBox
G4	5208694	5278439	musicBox
C#4	5352686	5422471	musicBox
E4	5352686	5422471	musicBox
G#4	5352686	5422471	musicBox
D4	5496706	5566423	musicBox
F4	5496706	5566423	musicBox
A4	5496706	5566423	musicBox
D#4	5640677	5710509	musicBox
F#4	5640677	5710509	musicBox
A#4	5640677	5710509	musicBox
E4	5784108	5853907	musicBox
G4	5784108	5853907	musicBox
B4	5784108	5853907	musicBox
F4	5928699	5998392	musicBox
G#4	5928699	5998392	musicBox
C5	5928699	5998392	musicBox
F#4	6073201	6142980	musicBox
A4	6073201	6142980	musicBox
C#5	6073201	6142980	musicBox
G4	6216662	6286510	musicBox
A#4	6216662	6286510	musicBox
D5	6216662	6286510	musicBox
G#4	6360048	6429909	musicBox
B4	6360048	6429909	musicBox
D#5	6360048	6429909	musicBox
A4	6504165	6573970	musicBox
C5	6504165	6573970	musicBox
E5	6504165	6573970	musicBox
A#4	6649212	6718899	musicBox
C#5	6649212	6718899	musicBox
F5	6649212	6718899	musicBox
B4	6792705	6862456	musicBox
D5	6792705	6862456	musicBox
F#5	6792705	6862456	musicBox
C5	6936687	7006438	musicBox
D#5	6936687	7006438	musicBox
G5	6936687	7006438	musicBox
C#5	7081183	7150990	musicBox
E5	7081183	7150990	musicBox
G#5	7081183	7150990	musicBox
D5	7225191	7294946	musicBox
F5	7225191	7294946	musicBox
A5	7225191	7294946	musicBox
D#5	7368710	7438459	musicBox
F#5	7368710	7438459	musicBox
A#5	7368710	7438459	musicBox
E5	7512645	7582390	musicBox
G5	7512645	7582390	musicBox
B5	7512645	7582390	musicBox
F5	7656150	7725898	musicBox
G#5	7656150	7725898	musicBox
C6	7656150	7725898	musicBox
F#5	7800155	7869903	musicBox
A5	7800155	7869903	musicBox
C#6	7800155	7869903	musicBox
G5	7944583	8014435	musicBox
A#5	7944583	8014435	musicBox
D6	7944583	8014435	musicBox
G#5	8088688	8158432	musicBox
B5	8088688	8158432	musicBox
D#6	8088688	8158432	musicBox
A5	8232149	8301927	musicBox
C6	8232149	8301927	musicBox
E6	8232149	8301927	musicBox
A#5	8376183	8445918	musicBox
C#6	8376183	8445918	musicBox
F6	8376183	8445918	musicBox
B5	8520763	8590453	musicBox
D6	8520763	8590453	musicBox
F#6	8520763	8590453	musicBox
C6	8664181	8733926	musicBox
D#6	8664181	8733926	musicBox
G6	8664181	8733926	musicBox
C#6	8808083	8877902	musicBox
E6	8808083	8877902	musicBox
G#6	8808083	8877902	musicBox
D6	8952672	9022449	musicBox
F6	8952672	9022449	musicBox
A6	8952672	9022449	musicBox
D#6	9096745	9166535	musicBox
F#6	9096745	9166535	musicBox
A#6	9096745	9166535	musicBox
E6	9234783	9304660	musicBox
G6	9234783	9304660	musicBox
B6	9234783	9304660	musicBox
