C1	24164	69924	steelDrums
F1	24164	69924	steelDrums
C#1	76443	123837	steelDrums
F#1	76443	123837	steelDrums
D1	128780	174734	steelDrums
G1	128780	174734	steelDrums
D#1	182031	227884	steelDrums
G#1	182031	227884	steelDrums
E1	234399	280384	steelDrums
A1	234399	280384	steelDrums
F1	286747	332590	steelDrums
A#1	286747	332590	steelDrums
F#1	338940	385486	steelDrums
B1	338940	385486	steelDrums
G1	390851	436604	steelDrums
C2	390851	436604	steelDrums
G#1	443692	489593	steelDrums
C#2	443692	489593	steelDrums
A1	496005	541946	steelDrums
D2	496005	541946	steelDrums
A#1	548280	594189	steelDrums
D#2	548280	594189	steelDrums
B1	600586	646388	steelDrums
E2	600586	646388	steelDrums
C2	653537	699251	steelDrums
F2	653537	699251	steelDrums
C#2	705325	751176	steelDrums
F#2	705325	751176	steelDrums
D2	758025	803853	steelDrums
G2	758025	803853	steelDrums
D#2	809909	855766	steelDrums
G#2	809909	855766	steelDrums
E2	862203	908042	steelDrums
A2	862203	908042	steelDrums
F2	914979	960783	steelDrums
A#2	914979	960783	steelDrums
F#2	967343	1013123	steelDrums
B2	967343	1013123	steelDrums
G2	1019652	1065488	steelDrums
C3	1019652	1065488	steelDrums
G#2	1072056	1117863	steelDrums
C#3	1072056	1117863	steelDrums
A2	1123875	1169752	steelDrums
D3	1123875	1169752	steelDrums
A#2	1176620	1222429	steelDrums
D#3	1176620	1222429	steelDrums
B2	1228975	1274770	steelDrums
E3	1228975	1274770	steelDrums
C3	1281307	1327231	steelDrums
F3	1281307	1327231	steelDrums
C#3	1334048	1379858	steelDrums
F#3	1334048	1379858	steelDrums
D3	1385888	1431698	steelDrums
G3	1385888	1431698	steelDrums
D#3	1438151	1484052	steelDrums
G#3	1438151	1484052	steelDrums
E3	1490569	1536414	steelDrums
A3	1490569	1536414	steelDrums
F3	1543283	1589134	steelDrums
A#3	1543283	1589134	steelDrums
F#3	1595639	1641458	steelDrums
B3	1595639	1641458	steelDrums
G3	1647972	1693826	steelDrums
C4	1647972	1693826	steelDrums
G#3	1699841	1745686	steelDrums
C#4	1699841	1745686	steelDrums
A3	1752674	1798469	steelDrums
D4	1752674	1798469	steelDrums
A#3	1804937	1850826	steelDrums
D#4	1804937	1850826	steelDrums
B3	1857333	1903241	steelDrums
E4	1857333	1903241	steelDrums
C4	1909550	1955453	steelDrums
F4	1909550	1955453	steelDrums
C#4	1961826	2007690	steelDrums
F#4	1961826	2007690	steelDrums
D4	2014771	2060532	steelDrums
G4	2014771	2060532	steelDrums
D#4	2066647	2112392	steelDrums
G#4	2066647	2112392	steelDrums
E4	2118756	2164616	steelDrums
A4	2118756	2164616	steelDrums
F4	2171653	2217452	steelDrums
A#4	2171653	2217452	steelDrums
F#4	2223996	2269924	steelDrums
B4	2223996	2269924	steelDrums
G4	2275871	2321701	steelDrums
C5	2275871	2321701	steelDrums
G#4	2328583	2374423	steelDrums
C#5	2328583	2374423	steelDrums
A4	2380850	2426813	steelDrums
D5	2380850	2426813	steelDrums
A#4	2433318	2479169	steelDrums
D#5	2433318	2479169	steelDrums
B4	2486076	2531907	steelDrums
E5	2486076	2531907	steelDrums
C5	2538373	2584319	steelDrums
F5	2538373	2584319	steelDrums
C#5	2590216	2636106	steelDrums
F#5	2590216	2636106	steelDrums
D5	2642542	2688454	steelDrums
G5	2642542	2688454	steelDrums
D#5	2694744	2740616	steelDrums
G#5	2694744	2740616	steelDrums
E5	2747649	2793609	steelDrums
A5	2747649	2793609	steelDrums
F5	2799949	2845822	steelDrums
A#5	2799949	2845822	steelDrums
F#5	2852750	2898611	steelDrums
B5	2852750	2898611	steelDrums
G5	2904525	2950489	steelDrums
C6	2904525	2950489	steelDrums
G#5	2956924	3002900	steelDrums
C#6	2956924	3002900	steelDrums
A5	3009646	3055587	steelDrums
D6	3009646	3055587	steelDrums
A#5	3062081	3107862	steelDrums
D#6	3062081	3107862	steelDrums
B5	3113887	3159713	steelDrums
E6	3113887	3159713	steelDrums
C6	3166229	3212137	steelDrums
F6	3166229	3212137	steelDrums
C#6	3218490	3264410	steelDrums
F#6	3218490	3264410	steelDrums
D6	3271329	3317195	steelDrums
G6	3271329	3317195	steelDrums
D#6	3323627	3369549	steelDrums
G#6	3323627	3369549	steelDrums
E6	3376004	3421858	steelDrums
A6	3376004	3421858	steelDrums
F6	3428175	3474070	steelDrums
A#6	3428175	3474070	steelDrums
F#6	3481102	3527038	steelDrums
B6	3481102	3527038	steelDrums
