E2	24895	66685	trombone
E3	24895	66685	trombone
F2	77589	118951	trombone
F3	77589	118951	trombone
F#2	129464	175138	trombone
F#3	129464	175138	trombone
G2	182310	225677	trombone
G3	182310	225677	trombone
G#2	234558	280160	trombone
G#3	234558	280160	trombone
A2	286435	331205	trombone
A3	286435	331205	trombone
A#2	339210	384866	trombone
A#3	339210	384866	trombone
B2	391647	431451	trombone
B3	391647	431451	trombone
C3	443770	489460	trombone
C4	443770	489460	trombone
C#3	496147	541449	trombone
C#4	496147	541449	trombone
D3	548492	590036	trombone
D4	548492	590036	trombone
D#3	601243	646879	trombone
D#4	601243	646879	trombone
E3	653605	695458	trombone
E4	653605	695458	trombone
F3	705867	749187	trombone
F4	705867	749187	trombone
F#3	757802	803419	trombone
F#4	757802	803419	trombone
G3	810480	853528	trombone
G4	810480	853528	trombone
G#3	862896	908510	trombone
G#4	862896	908510	trombone
A3	915208	960881	trombone
A4	915208	960881	trombone
A#3	967994	1013577	trombone
A#4	967994	1013577	trombone
B3	1020355	1065620	trombone
B4	1020355	1065620	trombone
C4	1072674	1118297	trombone
C5	1072674	1118297	trombone
C#4	1125044	1170325	trombone
C#5	1125044	1170325	trombone
D4	1177211	1221000	trombone
D5	1177211	1221000	trombone
D#4	1229620	1275221	trombone
D#5	1229620	1275221	trombone
E4	1281896	1325892	trombone
E5	1281896	1325892	trombone
F4	1334285	1377661	trombone
F5	1334285	1377661	trombone
F#4	1386130	1431786	trombone
F#5	1386130	1431786	trombone
G4	1438851	1481870	trombone
G5	1438851	1481870	trombone
