E2	24440	67164	trombone
A2	24440	67164	trombone
F2	76550	119096	trombone
A#2	76550	119096	trombone
F#2	128884	171514	trombone
B2	128884	171514	trombone
G2	181284	226932	trombone
C3	181284	226932	trombone
G#2	233619	272855	trombone
C#3	233619	272855	trombone
A2	285855	328678	trombone
D3	285855	328678	trombone
A#2	338705	384343	trombone
D#3	338705	384343	trombone
B2	391472	433283	trombone
E3	391472	433283	trombone
C3	443287	488955	trombone
F3	443287	488955	trombone
C#3	495599	541321	trombone
F#3	495599	541321	trombone
D3	547949	590547	trombone
G3	547949	590547	trombone
D#3	600375	646003	trombone
G#3	600375	646003	trombone
E3	652610	697321	trombone
A3	652610	697321	trombone
F3	704993	750573	trombone
A#3	704993	750573	trombone
F#3	757297	802946	trombone
B3	757297	802946	trombone
G3	809621	854773	trombone
C4	809621	854773	trombone
G#3	862379	907980	trombone
C#4	862379	907980	trombone
A3	914734	959463	trombone
D4	914734	959463	trombone
A#3	967065	1012702	trombone
D#4	967065	1012702	trombone
B3	1019877	1061661	trombone
E4	1019877	1061661	trombone
C4	1071147	1116261	trombone
F4	1071147	1116261	trombone
C#4	1124023	1169651	trombone
F#4	1124023	1169651	trombone
D4	1176286	1219356	trombone
G4	1176286	1219356	trombone
D#4	1229081	1274631	trombone
G#4	1229081	1274631	trombone
E4	1280936	1326593	trombone
A4	1280936	1326593	trombone
F4	1333797	1379387	trombone
A#4	1333797	1379387	trombone
F#4	1385631	1431278	trombone
B4	1385631	1431278	trombone
G4	1437887	1483483	trombone
C5	1437887	1483483	trombone
G#4	1490736	1534680	trombone
C#5	1490736	1534680	trombone
A4	1543446	1589117	trombone
D5	1543446	1589117	trombone
A#4	1595299	1640886	trombone
D#5	1595299	1640886	trombone
B4	1648166	1693152	trombone
E5	1648166	1693152	trombone
C5	1699940	1742195	trombone
F5	1699940	1742195	trombone
C#5	1752329	1796164	trombone
F#5	1752329	1796164	trombone
D5	1804574	1848081	trombone
G5	1804574	1848081	trombone
